…
                      var = c("PRCP", "TMIN", "TMAX"), 
                      date_min = "2016-01-01",
                      date_max = "2016-12-31") %>%
  mutate(
    name = recode(id, USW00094728 = "CentralPark_NY", 
                      USC00519397 = "Waikiki_HA",
                      USS0023B17S = "Waterhole_WA"),
    tmin = tmin / 10,
    tmax = tmax / 10,
    month = lubridate::floor_date(date, unit = "month")) %>%
  select(name, id, date, month, everything())
weather_df
```

    ## # A tibble: 1,098 x 7
    ##    name           id          date       month       prcp  tmax  tmin
    ##    <chr>          <chr>       <date>     <date>     <dbl> <dbl> <dbl>
    ##  1 CentralPark_NY USW00094728 2016-01-01 2016-01-01     0   5.6   1.1
    ##  2 CentralPark_NY USW00094728 2016-01-02 2016-01-01     0   4.4   0  
    ##  3 CentralPark_NY USW00094728 2016-01-03 2016-01-01     0   7.2   1.7
    ##  4 CentralPark_NY USW00094728 2016-01-04 2016-01-01     0   2.2  -9.9
    ##  5 CentralPark_NY USW00094728 2016-01-05 2016-01-01     0  -1.6 -11.6
    ##  6 CentralPark_NY USW00094728 2016-01-06 2016-01-01     0   5    -3.8
    ##  7 CentralPark_NY USW00094728 2016-01-07 2016-01-01     0   7.8  -0.5
    ##  8 CentralPark_NY USW00094728 2016-01-08 2016-01-01     0   7.8  -0.5
    ##  9 CentralPark_NY USW00094728 2016-01-09 2016-01-01     0   8.3   4.4
    ## 10 CentralPark_NY USW00094728 2016-01-10 2016-01-01   457  15     4.4
    ## # ... with 1,088 more rows

Start grouping
--------------

``` r
weather_df %>% 
  group_by(name)
```

    ## # A tibble: 1,098 x 7
    ## # Groups:   name [3]
    ##    name           id          date       month       prcp  tmax  tmin
    ##    <chr>          <chr>       <date>     <date>     <dbl> <dbl> <dbl>
    ##  1 CentralPark_NY USW00094728 2016-01-01 2016-01-01     0   5.6   1.1
    ##  2 CentralPark_NY USW00094728 2016-01-02 2016-01-01     0   4.4   0  
    ##  3 CentralPark_NY USW00094728 2016-01-03 2016-01-01     0   7.2   1.7
    ##  4 CentralPark_NY USW00094728 2016-01-04 2016-01-01     0   2.2  -9.9
    ##  5 CentralPark_NY USW00094728 2016-01-05 2016-01-01     0  -1.6 -11.6
    ##  6 CentralPark_NY USW00094728 2016-01-06 2016-01-01     0   5    -3.8
    ##  7 CentralPark_NY USW00094728 2016-01-07 2016-01-01     0   7.8  -0.5
    ##  8 CentralPark_NY USW00094728 2016-01-08 2016-01-01     0   7.8  -0.5
    ##  9 CentralPark_NY USW00094728 2016-01-09 2016-01-01     0   8.3   4.4
    ## 10 CentralPark_NY USW00094728 2016-01-10 2016-01-01   457  15     4.4
    ## # ... with 1,088 more rows

``` r
weather_df %>% 
  group_by(month)
```

    ## # A tibble: 1,098 x 7
    ## # Groups:   month [12]
    ##    name           id          date       month       prcp  tmax  tmin
    ##    <chr>          <chr>       <date>     <date>     <dbl> <dbl> <dbl>
    ##  1 CentralPark_NY USW00094728 2016-01-01 2016-01-01     0   5.6   1.1
    ##  2 CentralPark_NY USW00094728 2016-01-02 2016-01-01     0   4.4   0  
    ##  3 CentralPark_NY USW00094728 2016-01-03 2016-01-01     0   7.2   1.7
    ##  4 CentralPark_NY USW00094728 2016-01-04 2016-01-01     0   2.2  -9.9
    ##  5 CentralPark_NY USW00094728 2016-01-05 2016-01-01     0  -1.6 -11.6
    ##  6 CentralPark_NY USW00094728 2016-01-06 2016-01-01     0   5    -3.8
    ##  7 CentralPark_NY USW00094728 2016-01-07 2016-01-01     0   7.8  -0.5
    ##  8 CentralPark_NY USW00094728 2016-01-08 2016-01-01     0   7.8  -0.5
    ##  9 CentralPark_NY USW00094728 2016-01-09 2016-01-01     0   8.3   4.4
    ## 10 CentralPark_NY USW00094728 2016-01-10 2016-01-01   457  15     4.4
    ## # ... with 1,088 more rows

``` r
weather_df %>% 
  group_by(name, month)
```

    ## # A tibble: 1,098 x 7
    ## # Groups:   name, month [36]
    ##    name           id          date       month       prcp  tmax  tmin
    ##    <chr>          <chr>       <date>     <date>     <dbl> <dbl> <dbl>
    ##  1 CentralPark_NY USW00094728 2016-01-01 2016-01-01     0   5.6   1.1
    ##  2 CentralPark_NY USW00094728 2016-01-02 2016-01-01     0   4.4   0  
    ##  3 CentralPark_NY USW00094728 2016-01-03 2016-01-01     0   7.2   1.7
    ##  4 CentralPark_NY USW00094728 2016-01-04 2016-01-01     0   2.2  -9.9
    ##  5 CentralPark_NY USW00094728 2016-01-05 2016-01-01     0  -1.6 -11.6
    ##  6 CentralPark_NY USW00094728 2016-01-06 2016-01-01     0   5    -3.8
    ##  7 CentralPark_NY USW00094728 2016-01-07 2016-01-01     0   7.8  -0.5
    ##  8 CentralPark_NY USW00094728 2016-01-08 2016-01-01     0   7.8  -0.5
    ##  9 CentralPark_NY USW00094728 2016-01-09 2016-01-01     0   8.3   4.4
    ## 10 CentralPark_NY USW00094728 2016-01-10 2016-01-01   457  15     4.4
    ## # ... with 1,088 more rows

``` r
weather_df %>% 
  group_by(name, month) %>% 
  ungroup() # nothing will change
```

    ## # A tibble: 1,098 x 7
    ##    name           id          date       month       prcp  tmax  tmin
    ##    <chr>          <chr>       <date>     <date>     <dbl> <dbl> <dbl>
    ##  1 CentralPark_NY USW00094728 2016-01-01 2016-01-01     0   5.6   1.1
    ##  2 CentralPark_NY USW00094728 2016-01-02 2016-01-01     0   4.4   0  
    ##  3 CentralPark_NY USW00094728 2016-01-03 2016-01-01     0   7.2   1.7
    ##  4 CentralPark_NY USW00094728 2016-01-04 2016-01-01     0   2.2  -9.9
    ##  5 CentralPark_NY USW00094728 2016-01-05 2016-01-01     0  -1.6 -11.6
    ##  6 CentralPark_NY USW00094728 2016-01-06 2016-01-01     0   5    -3.8
    ##  7 CentralPark_NY USW00094728 2016-01-07 2016-01-01     0   7.8  -0.5
    ##  8 CentralPark_NY USW00094728 2016-01-08 2016-01-01     0   7.8  -0.5
    ##  9 CentralPark_NY USW00094728 2016-01-09 2016-01-01     0   8.3   4.4
    ## 10 CentralPark_NY USW00094728 2016-01-10 2016-01-01   457  15     4.4
    ## # ... with 1,088 more rows

Count frist ...

``` r
weather_df %>% 
  group_by(name, month) %>% 
  summarize(number = n()) # summary how many elements are in the group
```

    ## # A tibble: 36 x 3
    ## # Groups:   name [?]
    ##    name           month      number
    ##    <chr>          <date>      <int>
    ##  1 CentralPark_NY 2016-01-01     31
    ##  2 CentralPark_NY 2016-02-01     29
    ##  3 CentralPark_NY 2016-03-01     31
    ##  4 CentralPark_NY 2016-04-01     30
    ##  5 CentralPark_NY 2016-05-01     31
    ##  6 CentralPark_NY 2016-06-01     30
    ##  7 CentralPark_NY 2016-07-01     31
    ##  8 CentralPark_NY 2016-08-01     31
    ##  9 CentralPark_NY 2016-09-01     30
    ## 10 CentralPark_NY 2016-10-01     31
    ## # ... with 26 more rows
…
``` r
weather_df %>% 
  count(name, month)
```

    ## # A tibble: 36 x 3
    ##    name           month          n
    ##    <chr>          <date>     <int>
    ##  1 CentralPark_NY 2016-01-01    31
    ##  2 CentralPark_NY 2016-02-01    29
    ##  3 CentralPark_NY 2016-03-01    31
    ##  4 CentralPark_NY 2016-04-01    30
    ##  5 CentralPark_NY 2016-05-01    31
    ##  6 CentralPark_NY 2016-06-01    30
    ##  7 CentralPark_NY 2016-07-01    31
    ##  8 CentralPark_NY 2016-08-01    31
    ##  9 CentralPark_NY 2016-09-01    30
    ## 10 CentralPark_NY 2016-10-01    31
    ## # ... with 26 more rows

Grouped summaries
-----------------

``` r
weather_df %>% 
  group_by(name, month) %>% 
  summarize(number = n(),
            mean_tmax = mean(tmax)) 
```

    ## # A tibble: 36 x 4
    ## # Groups:   name [?]
    ##    name           month      number mean_tmax
    ##    <chr>          <date>      <int>     <dbl>
    ##  1 CentralPark_NY 2016-01-01     31      4.89
    ##  2 CentralPark_NY 2016-02-01     29      7.14
    ##  3 CentralPark_NY 2016-03-01     31     14.1 
    ##  4 CentralPark_NY 2016-04-01     30     16.8 
    ##  5 CentralPark_NY 2016-05-01     31     21.5 
    ##  6 CentralPark_NY 2016-06-01     30     27.2 
    ##  7 CentralPark_NY 2016-07-01     31     30.1 
    ##  8 CentralPark_NY 2016-08-01     31     30.3 
    ##  9 CentralPark_NY 2016-09-01     30     26.1 
    ## 10 CentralPark_NY 2016-10-01     31     18.8 
    ## # ... with 26 more rows

``` r
weather_df %>% 
  group_by(name, month) %>% 
  summarize(number = n(),
            name_na = sum(is.na(tmax)), # show the number of missing value
            mean_tmax = mean(tmax))
```

    ## # A tibble: 36 x 5
    ## # Groups:   name [?]
    ##    name           month      number name_na mean_tmax
    ##    <chr>          <date>      <int>   <int>     <dbl>
    ##  1 CentralPark_NY 2016-01-01     31       0      4.89
    ##  2 CentralPark_NY 2016-02-01     29       0      7.14
    ##  3 CentralPark_NY 2016-03-01     31       0     14.1 
    ##  4 CentralPark_NY 2016-04-01     30       0     16.8 
    ##  5 CentralPark_NY 2016-05-01     31       0     21.5 
    ##  6 CentralPark_NY 2016-06-01     30       0     27.2 
    ##  7 CentralPark_NY 2016-07-01     31       0     30.1 
    ##  8 CentralPark_NY 2016-08-01     31       0     30.3 
    ##  9 CentralPark_NY 2016-09-01     30       0     26.1 
    ## 10 CentralPark_NY 2016-10-01     31       0     18.8 
    ## # ... with 26 more rows

``` r
# ?mean
weather_df %>% 
  group_by(name, month) %>% 
  summarize(number = n(),
            mean_tmax = mean(tmax, na.rm = TRUE)) # no NA will be calculate
```

    ## # A tibble: 36 x 4
    ## # Groups:   name [?]
    ##    name           month      number mean_tmax
    ##    <chr>          <date>      <int>     <dbl>
    ##  1 CentralPark_NY 2016-01-01     31      4.89
    ##  2 CentralPark_NY 2016-02-01     29      7.14
    ##  3 CentralPark_NY 2016-03-01     31     14.1 
    ##  4 CentralPark_NY 2016-04-01     30     16.8 
    ##  5 CentralPark_NY 2016-05-01     31     21.5 
    ##  6 CentralPark_NY 2016-06-01     30     27.2 
    ##  7 CentralPark_NY 2016-07-01     31     30.1 
    ##  8 CentralPark_NY 2016-08-01     31     30.3 
    ##  9 CentralPark_NY 2016-09-01     30     26.1 
    ## 10 CentralPark_NY 2016-10-01     31     18.8 
    ## # ... with 26 more rows

``` r
weather_df %>% 
  group_by(name, month) %>% 
  summarize(number = n(),
            mean_tmax = mean(tmax, na.rm = TRUE),
            median_prcp = median(prcp, na.rm = TRUE)
  )
```

    ## # A tibble: 36 x 5
    ## # Groups:   name [?]
    ##    name           month      number mean_tmax median_prcp
    ##    <chr>          <date>      <int>     <dbl>       <dbl>
    ##  1 CentralPark_NY 2016-01-01     31      4.89           0
    ##  2 CentralPark_NY 2016-02-01     29      7.14           0
    ##  3 CentralPark_NY 2016-03-01     31     14.1            0
    ##  4 CentralPark_NY 2016-04-01     30     16.8            0
    ##  5 CentralPark_NY 2016-05-01     31     21.5            0
    ##  6 CentralPark_NY 2016-06-01     30     27.2            0
    ##  7 CentralPark_NY 2016-07-01     31     30.1            0
    ##  8 CentralPark_NY 2016-08-01     31     30.3            0
    ##  9 CentralPark_NY 2016-09-01     30     26.1            0
    ## 10 CentralPark_NY 2016-10-01     31     18.8            0
    ## # ... with 26 more rows

``` r
weather_df %>% 
  group_by(name, month) %>% 
  summarize(number = n(),
            mean_tmax = mean(tmax, na.rm = TRUE),
            median_prcp = median(prcp, na.rm = TRUE),
            sd_tmin = sd(tmin, na.rm = TRUE)
        
  )
```

    ## # A tibble: 36 x 6
    ## # Groups:   name [?]
    ##    name           month      number mean_tmax median_prcp sd_tmin
    ##    <chr>          <date>      <int>     <dbl>       <dbl>   <dbl>
    ##  1 CentralPark_NY 2016-01-01     31      4.89           0    4.29
    ##  2 CentralPark_NY 2016-02-01     29      7.14           0    6.37
    ##  3 CentralPark_NY 2016-03-01     31     14.1            0    4.37
    ##  4 CentralPark_NY 2016-04-01     30     16.8            0    4.78
    ##  5 CentralPark_NY 2016-05-01     31     21.5            0    4.84
    ##  6 CentralPark_NY 2016-06-01     30     27.2            0    2.53
    ##  7 CentralPark_NY 2016-07-01     31     30.1            0    2.49
    ##  8 CentralPark_NY 2016-08-01     31     30.3            0    2.37
    ##  9 CentralPark_NY 2016-09-01     30     26.1            0    3.22
    ## 10 CentralPark_NY 2016-10-01     31     18.8            0    4.39
    ## # ... with 26 more rows

compare with mutate a new variable and summarize something
----------------------------------------------------------

``` r
weather_df %>% 
  group_by(name) %>% 
  mutate(mean_tmax = mean(tmax, na.rm = TRUE)) # repeat in the group (but of courese calculate by group)
```

    ## # A tibble: 1,098 x 8
    ## # Groups:   name [3]
    ##    name        id        date       month       prcp  tmax  tmin mean_tmax
    ##    <chr>       <chr>     <date>     <date>     <dbl> <dbl> <dbl>     <dbl>
    ##  1 CentralPar~ USW00094~ 2016-01-01 2016-01-01     0   5.6   1.1      18.1
    ##  2 CentralPar~ USW00094~ 2016-01-02 2016-01-01     0   4.4   0        18.1
    ##  3 CentralPar~ USW00094~ 2016-01-03 2016-01-01     0   7.2   1.7      18.1
    ##  4 CentralPar~ USW00094~ 2016-01-04 2016-01-01     0   2.2  -9.9      18.1
    ##  5 CentralPar~ USW00094~ 2016-01-05 2016-01-01     0  -1.6 -11.6      18.1
    ##  6 CentralPar~ USW00094~ 2016-01-06 2016-01-01     0   5    -3.8      18.1
    ##  7 CentralPar~ USW00094~ 2016-01-07 2016-01-01     0   7.8  -0.5      18.1
    ##  8 CentralPar~ USW00094~ 2016-01-08 2016-01-01     0   7.8  -0.5      18.1
    ##  9 CentralPar~ USW00094~ 2016-01-09 2016-01-01     0   8.3   4.4      18.1
    ## 10 CentralPar~ USW00094~ 2016-01-10 2016-01-01   457  15     4.4      18.1
    ## # ... with 1,088 more rows
…
Grouped mutate
--------------

``` r
weather_df %>% 
  group_by(name, month) %>% 
  mutate(mean_tmax = mean(tmax, na.rm = TRUE)) # repeat in the group
```

    ## # A tibble: 1,098 x 8
    ## # Groups:   name, month [36]
    ##    name        id        date       month       prcp  tmax  tmin mean_tmax
    ##    <chr>       <chr>     <date>     <date>     <dbl> <dbl> <dbl>     <dbl>
    ##  1 CentralPar~ USW00094~ 2016-01-01 2016-01-01     0   5.6   1.1      4.89
    ##  2 CentralPar~ USW00094~ 2016-01-02 2016-01-01     0   4.4   0        4.89
    ##  3 CentralPar~ USW00094~ 2016-01-03 2016-01-01     0   7.2   1.7      4.89
    ##  4 CentralPar~ USW00094~ 2016-01-04 2016-01-01     0   2.2  -9.9      4.89
    ##  5 CentralPar~ USW00094~ 2016-01-05 2016-01-01     0  -1.6 -11.6      4.89
    ##  6 CentralPar~ USW00094~ 2016-01-06 2016-01-01     0   5    -3.8      4.89
    ##  7 CentralPar~ USW00094~ 2016-01-07 2016-01-01     0   7.8  -0.5      4.89
    ##  8 CentralPar~ USW00094~ 2016-01-08 2016-01-01     0   7.8  -0.5      4.89
    ##  9 CentralPar~ USW00094~ 2016-01-09 2016-01-01     0   8.3   4.4      4.89
    ## 10 CentralPar~ USW00094~ 2016-01-10 2016-01-01   457  15     4.4      4.89
    ## # ... with 1,088 more rows
…
Window functions
----------------

Use ranks

``` r
# ?rank, ? min_rank
weather_df %>% 
  group_by(name, month) %>% 
  mutate(tmax_rank = min_rank(tmax)) %>%  # coldest days
  filter(tmax_rank < 2) 
```

    ## # A tibble: 47 x 8
    ## # Groups:   name, month [36]
    ##    name        id        date       month       prcp  tmax  tmin tmax_rank
    ##    <chr>       <chr>     <date>     <date>     <dbl> <dbl> <dbl>     <int>
    ##  1 CentralPar~ USW00094~ 2016-01-23 2016-01-01   587  -2.7  -4.3         1
    ##  2 CentralPar~ USW00094~ 2016-02-14 2016-02-01     0  -9.3 -18.2         1
    ##  3 CentralPar~ USW00094~ 2016-03-03 2016-03-01     0   2.2  -3.2         1
    ##  4 CentralPar~ USW00094~ 2016-04-05 2016-04-01     0   6.1  -3.2         1
    ##  5 CentralPar~ USW00094~ 2016-04-09 2016-04-01    28   6.1   2.2         1
    ##  6 CentralPar~ USW00094~ 2016-05-01 2016-05-01    41  10.6   7.2         1
    ##  7 CentralPar~ USW00094~ 2016-06-08 2016-06-01   114  19.4  11.1         1
    ##  8 CentralPar~ USW00094~ 2016-07-09 2016-07-01   135  22.2  18.3         1
    ##  9 CentralPar~ USW00094~ 2016-08-02 2016-08-01     0  26.1  20           1
    ## 10 CentralPar~ USW00094~ 2016-08-22 2016-08-01     0  26.1  18.3         1
    ## # ... with 37 more rows

``` r
weather_df %>% 
  group_by(name, month) %>% 
  mutate(tmax_rank = min_rank(desc(tmax))) %>%   # warmest days
  filter(tmax_rank < 2) 
```

    ## # A tibble: 63 x 8
    ## # Groups:   name, month [36]
    ##    name        id        date       month       prcp  tmax  tmin tmax_rank
    ##    <chr>       <chr>     <date>     <date>     <dbl> <dbl> <dbl>     <int>
    ##  1 CentralPar~ USW00094~ 2016-01-10 2016-01-01   457  15     4.4         1
    ##  2 CentralPar~ USW00094~ 2016-02-20 2016-02-01     0  16.1   3.9         1
    ##  3 CentralPar~ USW00094~ 2016-02-25 2016-02-01     5  16.1   2.8         1
    ##  4 CentralPar~ USW00094~ 2016-02-29 2016-02-01    13  16.1   8.3         1
    ##  5 CentralPar~ USW00094~ 2016-03-10 2016-03-01     0  26.1  17.2         1
    ##  6 CentralPar~ USW00094~ 2016-04-18 2016-04-01     0  27.8  10.6         1
    ##  7 CentralPar~ USW00094~ 2016-05-28 2016-05-01     0  33.3  21.7         1
    ##  8 CentralPar~ USW00094~ 2016-06-11 2016-06-01     0  31.1  15           1
    ##  9 CentralPar~ USW00094~ 2016-06-19 2016-06-01     0  31.1  18.9         1
    ## 10 CentralPar~ USW00094~ 2016-07-23 2016-07-01     0  35.6  26.7         1
    ## # ... with 53 more rows

Use lag to get the previous observations

``` r
# ?lag
```

``` r
weather_df %>% 
  group_by(name) %>% 
  mutate(lag_tmax = lag(tmax))   # the very first data will be NA, be careful if the data is not ordered
```

    ## # A tibble: 1,098 x 8
    ## # Groups:   name [3]
    ##    name         id        date       month       prcp  tmax  tmin lag_tmax
    ##    <chr>        <chr>     <date>     <date>     <dbl> <dbl> <dbl>    <dbl>
    ##  1 CentralPark~ USW00094~ 2016-01-01 2016-01-01     0   5.6   1.1     NA  
    ##  2 CentralPark~ USW00094~ 2016-01-02 2016-01-01     0   4.4   0        5.6
    ##  3 CentralPark~ USW00094~ 2016-01-03 2016-01-01     0   7.2   1.7      4.4
    ##  4 CentralPark~ USW00094~ 2016-01-04 2016-01-01     0   2.2  -9.9      7.2
    ##  5 CentralPark~ USW00094~ 2016-01-05 2016-01-01     0  -1.6 -11.6      2.2
    ##  6 CentralPark~ USW00094~ 2016-01-06 2016-01-01     0   5    -3.8     -1.6
    ##  7 CentralPark~ USW00094~ 2016-01-07 2016-01-01     0   7.8  -0.5      5  
    ##  8 CentralPark~ USW00094~ 2016-01-08 2016-01-01     0   7.8  -0.5      7.8
    ##  9 CentralPark~ USW00094~ 2016-01-09 2016-01-01     0   8.3   4.4      7.8
    ## 10 CentralPark~ USW00094~ 2016-01-10 2016-01-01   457  15     4.4      8.3
    ## # ... with 1,088 more rows
…
